# send: 1 by: vhernandez; lists: gAJdcQFVB3NoZWV0OjFxAmFLAIZxAy4=_; cmdline: --sendid=561245 --fromatq --throttle-client=no --at 11:25AM today -lsheet:1 send email-spanish.txt list-incli-spanish.txt
Nov 19 2014 11:25:05 comercial@logisum.com (ok)
Nov 19 2014 11:25:05 comercial@macroelectricos.com (ok)
Nov 19 2014 11:25:05 comercial@servimportaciones.com (ok)
Nov 19 2014 11:25:05 compra1@super.com.co (ok)
Nov 19 2014 11:25:05 compras.unigas@grupounigas.co (ok)
Nov 19 2014 11:25:05 compras@bravopetroleum.com (ok)
Nov 19 2014 11:25:05 compras@byvingenieria.com (ok)
Nov 19 2014 11:25:05 compras@inelco.com.co (ok)
Nov 19 2014 11:25:05 compras@metalprest.com.co (ok)
Nov 19 2014 11:25:05 compras@metrogassaesp.com (ok)
Nov 19 2014 11:25:05 compras@micmetrologia.com.co (ok)
Nov 19 2014 11:25:05 compras@otacc.com (ok)
Nov 19 2014 11:25:05 compras@proaseling.com (ok)
Nov 19 2014 11:25:05 compras@proevalingenierossa.com (ok)
Nov 19 2014 11:25:05 compras1@confipetrol.com (ok)
Nov 19 2014 11:25:05 compras2@asesoriasyconstrucciones.com (ok)
Nov 19 2014 11:25:05 compras5@ismocol.com (ok)
Nov 19 2014 11:25:05 comprasedificio7icp@otacc.com (ok)
Nov 19 2014 11:25:05 consorciocaribeinternacional@gmail.com (ok)
Nov 19 2014 11:25:05 contabilidad@la-tour.com (ok)
Nov 19 2014 11:25:05 correo@transmetano.com.co (ok)
Nov 19 2014 11:25:05 cotizaciones03@automatizacion.com.co (ok)
Nov 19 2014 11:25:05 cramirez@nalco.com (ok)
Nov 19 2014 11:25:05 cristian.valbuena@linde.com (ok)
Nov 19 2014 11:25:05 crtmdelpacifico@emcali.net.co (ok)
Nov 19 2014 11:25:05 csancheztc@yahoo.es (ok)
Nov 19 2014 11:25:05 d.compras@egingenierossas.com (ok)
Nov 19 2014 11:25:05 dabeltran@grupodellano.com (ok)
Nov 19 2014 11:25:05 daleza212@gmail.com (ok)
Nov 19 2014 11:25:06 daniel.guarnizo@ecopetrol.com (ok)
Nov 19 2014 11:25:06 darana@epsa.com.co (ok)
Nov 19 2014 11:25:06 darwin_yepes@oxy.com (ok)
Nov 19 2014 11:25:06 david.jacome@awelectronica.net (ok)
Nov 19 2014 11:25:06 david.saldarriaga@azul-ingenieria.com (ok)
Nov 19 2014 11:25:06 davidfe.gomez@ecopetrol.com.co (ok)
Nov 19 2014 11:25:06 davidje.perez@ecopetrol.com.co (ok)
Nov 19 2014 11:25:06 dcampo@equipelco.com (ok)
Nov 19 2014 11:25:06 deiby.quintero@ecopetrol.com.co (ok)
Nov 19 2014 11:25:06 dhayra.morales@excelair.com.co (ok)
Nov 19 2014 11:25:06 dherrera@apsi-sas.com (ok)
Nov 19 2014 11:25:06 diana.collazos@diatecoltda.com (bounce - /home/jaminb/beta/mailing/bad-emails)
Nov 19 2014 11:25:06 diefproyectos@uis.edu.co (ok)
Nov 19 2014 11:25:06 diego.herrera@linde.com (ok)
Nov 19 2014 11:25:06 diego.herrrera@ingredion.com (bounce - /home/jaminb/beta/mailing/bad-emails)
Nov 19 2014 11:25:06 diexer.caro@contratista.epm.co (ok)
Nov 19 2014 11:25:06 digitacionalmacen@proing.com.co (ok)
Nov 19 2014 11:25:06 dismafer@hotmail.com (ok)
Nov 19 2014 11:25:06 distrinferltda@msn.com (ok)
Nov 19 2014 11:25:06 divisionpetroleos3@tuvacol.com (ok)
Nov 19 2014 11:25:06 dlecheverry@grupodellano.com (ok)
Nov 19 2014 11:25:06 dmorantes@corrosion.uis.edu.co (ok)
Nov 19 2014 11:25:06 donaldo.manchego@ecopetrol.com.co (ok)
Nov 19 2014 11:25:06 doperaciones@macrogaspruebas.com (ok)
Nov 19 2014 11:25:06 doris.pineros@praxair.com (bounce - /home/jaminb/beta/mailing/bad-emails)
Nov 19 2014 11:25:06 drobles@co.perenco.com (ok)
Nov 19 2014 11:25:06 drodriguez@cabot-corp.com (ok)
Nov 19 2014 11:25:06 dtorres@ecodieselcolombiasa.com (ok)
Nov 19 2014 11:25:06 dvc.ingenieria@gmail.com (ok)
Nov 19 2014 11:25:06 dymltda@yahoo.com (ok)
Nov 19 2014 11:25:06 dymltda2@gmail.com (ok)
Nov 19 2014 11:25:06 ebula@monomeros.com.co (ok)
Nov 19 2014 11:25:06 edgar_gandara@praxair.com (ok)
Nov 19 2014 11:25:06 edilson.vega@manuelita.com (ok)
Nov 19 2014 11:25:06 edison.zulugo@hotmail.com (ok)
Nov 19 2014 11:25:06 eds_matamundo@hotmail.com (ok)
Nov 19 2014 11:25:06 edutek.sas@gmail.com (ok)
Nov 19 2014 11:25:06 edwin.garcia@consorcioobciteco.com (ok)
Nov 19 2014 11:25:06 edwin.rangel@ecopetrol.com.co (ok)
Nov 19 2014 11:25:06 efecl797@yahoo.com (ok)
Nov 19 2014 11:25:06 egutierrez@dpsingenierios.com (ok)
Nov 19 2014 11:25:06 eisasventas@gmail.com (ok)
Nov 19 2014 11:25:06 haceb@haceb.com (ok)
Nov 19 2014 11:25:06 hansrueda@cerrejoncoal.com (bounce - /home/jaminb/beta/mailing/bad-emails)
Nov 19 2014 11:25:06 harold.ruiz@ecopetrol.com.co (ok)
Nov 19 2014 11:25:06 hector.maestre@co.atlascopco.com (ok)
Nov 19 2014 11:25:06 heidy.vargas@sgs.com (ok)
Nov 19 2014 11:25:06 helenmarc78@hotmail.com (ok)
Nov 19 2014 11:25:06 helman.martinez@sysdelcaribe.com (ok)
Nov 19 2014 11:25:06 heraldo.alvarez@la.weatherford.com (ok)
Nov 19 2014 11:25:06 hernan.grajales@haceb.com (ok)
Nov 19 2014 11:25:06 hernan.patino@ecopetrol.com.co (ok)
Nov 19 2014 11:25:06 hmogollon@lasalle.edu.co (ok)
Nov 19 2014 11:25:06 hneira@epsa.com.co (ok)
Nov 19 2014 11:25:06 hsantana@fluxcontrol.com.co (ok)
Nov 19 2014 11:25:06 huber.estupinan@ecopetrol.com.co (ok)
Nov 19 2014 11:25:06 hycocompras@hyco.com.co (ok)
Nov 19 2014 11:25:06 ihurtado@epsa.com (ok)
Nov 19 2014 11:25:06 iluminata25@hotmail.com (bounce - /home/jaminb/beta/mailing/bad-emails)
Nov 19 2014 11:25:06 imporpetrol@hotmail.com (ok)
Nov 19 2014 11:25:06 incoosas@hotmail.com (bounce - /home/jaminb/beta/mailing/bad-emails)
Nov 19 2014 11:25:06 info@copower.com.co (ok)
Nov 19 2014 11:25:06 info@wpdingenieria.com (ok)
Nov 19 2014 11:25:06 ingegascali@hotmail.com (ok)
Nov 19 2014 11:25:06 ingelgas@hotmail.com (ok)
Nov 19 2014 11:25:06 ingenieria7@inmancol.com (ok)
Nov 19 2014 11:25:06 intpurchasecali@tuvacol.com (ok)
Nov 19 2014 11:25:06 isabel.mejia@correounivalle.edu.co (ok)
Nov 19 2014 11:25:06 ivan.martinez@ocensa.com.co (ok)
Nov 19 2014 11:25:06 j.angarita@petrosantander.com.co (ok)
Nov 19 2014 11:25:06 j.penabym@etb.net.co (ok)
Nov 19 2014 11:25:06 jair.torres@ecopetrol.com.co (ok)
Nov 19 2014 11:25:06 jairo.duran@smurfitkappa.com.co (ok)
Nov 19 2014 11:25:06 jairo.martinez@gerdau.com (ok)
Nov 19 2014 11:25:06 javier.arguello@ocensa.com.co (ok)
Nov 19 2014 11:25:06 javier.espinosa@bav.sabmiller.com (ok)
Nov 19 2014 11:25:06 javier.munera@enka.com.co (bounce - /home/jaminb/beta/mailing/bad-emails)
Nov 19 2014 11:25:06 javier.pirazan@ces.com.co (ok)
Nov 19 2014 11:25:06 javieren.osorio@ecopetrol.com.co (ok)
Nov 19 2014 11:25:06 jborrero12@yahoo.es (ok)
Nov 19 2014 11:25:06 jcardona@hada.com.co (ok)
Nov 19 2014 11:25:06 jclavijo@tiger-cos.com (ok)
Nov 19 2014 11:25:06 jcvizcainoahumada@gmail.com (ok)
Nov 19 2014 11:25:06 jdortizbarbera@yahoo.com (ok)
Nov 19 2014 11:25:06 jegarcia@tebsa.com.co (ok)
Nov 19 2014 11:25:06 jespeso@gasmovil.com.co (bounce - /home/jaminb/beta/mailing/bad-emails)
Nov 19 2014 11:25:06 jesus.maldonado@abocol.com (ok)
Nov 19 2014 11:25:06 jfontalvoa@unal.edu.co (ok)
Nov 19 2014 11:25:06 jgaleano@hsalazarcia.com (ok)
Nov 19 2014 11:25:06 jgomez@termovalle.com (ok)
Nov 19 2014 11:25:06 jhon.balanta@bakerhughes.com (ok)
Nov 19 2014 11:25:06 jhon.medina@masateam.com (bounce - /home/jaminb/beta/mailing/bad-emails)
Nov 19 2014 11:25:06 jhon.perez@smurfitkappa.com.co (ok)
Nov 19 2014 11:25:06 jlondono3@exchange.slb.com (ok)
Nov 19 2014 11:25:06 jmarin@ingeniolacabana.com (ok)
Nov 19 2014 11:25:06 jmartinez@schradercamargo.com.co (ok)
Nov 19 2014 11:25:06 jmescobar@serviciosnutresa.com (ok)
Nov 19 2014 11:25:06 jobuitra@uniandes.edu.co (ok)
Nov 19 2014 11:25:06 johana_aguirre@mansarovar.com.co (ok)
Nov 19 2014 11:25:06 john.banguero@ecopetrol.com.co (ok)
Nov 19 2014 11:25:06 john.londono@cryogas.com.co (ok)
Nov 19 2014 11:25:06 john.marmolejo@omnicom.com (bounce - /home/jaminb/beta/mailing/bad-emails)
Nov 19 2014 11:25:06 john.molina@inventiva.co (ok)
Nov 19 2014 11:25:06 johnfr.quintero@ecopetrol.com.co (ok)
Nov 19 2014 11:25:06 jorge.berrio@cryogas.com.co (ok)
Nov 19 2014 11:25:06 jorge.cuellar@cryogas.com.co (ok)
Nov 19 2014 11:25:06 jorge.duartea@ecopetrol.com.co (ok)
Nov 19 2014 11:25:06 jorge.gonzalez@hcl.com.co (ok)
Nov 19 2014 11:25:06 jorge.meza@ecopetrol.com.co (ok)
Nov 19 2014 11:25:06 jorge.polania@alcanosesp.com (ok)
Nov 19 2014 11:25:06 jorge_ariza@insoltec.com.co (ok)
Nov 19 2014 11:25:06 jorge_rodriguez@mansarovar.com.co (ok)
Nov 19 2014 11:25:06 jorgeh.sanchez@upb.edu.co (ok)
Nov 19 2014 11:25:06 luisa.galvez@papelesnacionales.com (ok)
Nov 19 2014 11:25:06 luisafernanda.carreno@woodgroup.com (ok)
Nov 19 2014 11:25:06 luisafernanda.garzoncardenas@clariant.com (ok)
Nov 19 2014 11:25:06 luisag@gasesdeoccidente.com (ok)
Nov 19 2014 11:25:06 luisal.cardenas@ecopetrol.com.co (ok)
Nov 19 2014 11:25:06 luisorlando_fuentes@oxy.com (ok)
Nov 19 2014 11:25:06 luz.moya@co.abb.com (ok)
Nov 19 2014 11:25:06 luz.novoa@ecopetrol.com.co (ok)
Nov 19 2014 11:25:06 luzm_castillo@khymos.com (ok)
Nov 19 2014 11:25:06 mancilin.ingenieria@gmail.com (ok)
Nov 19 2014 11:25:06 manfltda@gmail.com (ok)
Nov 19 2014 11:25:06 mantenimiento.sabaneta@cryogas.com.co (ok)
Nov 19 2014 11:25:06 marcel.gonzalez@tecnicontroles.com (ok)
Nov 19 2014 11:25:06 marcel.r.vanin@bhpbilliton.com (ok)
Nov 19 2014 11:25:06 maria.caballero@uniphos.com (ok)
Nov 19 2014 11:25:06 maria.duran@smurfitkappa.com.co (ok)
Nov 19 2014 11:25:06 maria.llamas@kentz.com (ok)
Nov 19 2014 11:25:06 maria.villareal@termoemcali.com (ok)
Nov 19 2014 11:25:06 maribelc@gasesdeoccidente.com (ok)
Nov 19 2014 11:25:06 mario.llano@correounivalle.edu.co (ok)
Nov 19 2014 11:25:06 mario.santamaria@utadeo.edu.co (ok)
Nov 19 2014 11:25:06 martha.gomez@abmauri.com.co (ok)
Nov 19 2014 11:25:06 martijj@chevron.com (ok)
Nov 19 2014 11:25:06 masilgado@grupollano.com (ok)
Nov 19 2014 11:25:06 materiales.cusiana@ocensa.com.co (ok)
Nov 19 2014 11:25:06 materiales@centumaco.com.co (ok)
Nov 19 2014 11:25:06 mauribe@tablemac.com (ok)
Nov 19 2014 11:25:06 mauricio.baquero@syz.com.co (ok)
Nov 19 2014 11:25:06 mauricio.drada@omnicom.com (bounce - /home/jaminb/beta/mailing/bad-emails)
Nov 19 2014 11:25:06 mauricio.morales2@mdlz.com (ok)
Nov 19 2014 11:25:06 mbolier@co.imw.ca (ok)
Nov 19 2014 11:25:06 mcardona@transoccidente.com.co (ok)
Nov 19 2014 11:25:06 mcepeda@gascaribe.com (ok)
Nov 19 2014 11:25:06 medellin@hidroprob.com (ok)
Nov 19 2014 11:25:06 mekon.ing@hotmail.com (ok)
Nov 19 2014 11:25:06 mfigueroa@pacificrubiales.com.co (ok)
Nov 19 2014 11:25:06 mgalindo@lasalle.edu.co (ok)
Nov 19 2014 11:25:06 michelle.salazar@smurfitkappa.com.co (ok)
Nov 19 2014 11:25:06 miguel.saavedra@vecol.com.co (ok)
Nov 19 2014 11:25:06 mjgonzalez@tenaris.com (ok)
Nov 19 2014 11:25:06 mluna@pacificrubiales.com.co (ok)
Nov 19 2014 11:25:06 mmartinez@dow.com (ok)
Nov 19 2014 11:25:06 monica.sanabria@copower.com.co (ok)
Nov 19 2014 11:25:06 msalazar@termovalle.com (ok)
Nov 19 2014 11:25:06 mtorres@epsa.com.co (ok)
Nov 19 2014 11:25:06 nanky.vasquez@hocol.com.co (ok)
Nov 19 2014 11:25:06 natalia.pastrana@tgi.com.co (ok)
Nov 19 2014 11:25:06 nathaly.giraldo@super.com.co (ok)
Nov 19 2014 11:25:06 naydu.maya@biofilm.com.co (ok)
Nov 19 2014 11:25:06 nayith.alvarez@ecopetrol.com.co (ok)
Nov 19 2014 11:25:06 nelson.hoya@ecopetrol.com.co (ok)
Nov 19 2014 11:25:06 nelsonforero@ingegas.com (ok)
Nov 19 2014 11:25:06 nicolas_rincon@oxy.com (ok)
Nov 19 2014 11:25:06 nidian.machado@woodgroup.com (ok)
Nov 19 2014 11:25:06 nilsson.claro@insurcol.com (ok)
Nov 19 2014 11:25:06 nixon.uribe@ecopetrol.com.co (ok)
Nov 19 2014 11:25:06 nmaldonado@schradercamanrgo.com.co (ok)
Nov 19 2014 11:25:06 norbey.rodriguez@ecopetrol.com.co (ok)
Nov 19 2014 11:25:06 nubia.mora@linde.com (ok)
Nov 19 2014 11:25:06 nzapata@ecodieselcolombiasa.com (ok)
Nov 19 2014 11:25:06 o.hernandez@petrosantander.com.co (ok)
Nov 19 2014 11:25:06 ofertas.repuestos@iycsa.com.co (ok)
Nov 19 2014 11:25:06 olga_mendez@insoltec.com.co (ok)
Nov 19 2014 11:25:06 olmaider@colombia.com (bounce - /home/jaminb/beta/mailing/bad-emails)
Nov 19 2014 11:25:06 olmeider@colombia.com (ok)
Nov 19 2014 11:25:06 operadores.cracking@ecopetrol.com.co (ok)
Nov 19 2014 11:25:06 ordendecompra@uninorte.edu.co (ok)
Nov 19 2014 11:25:06 orlando.duran@manuelita.com (ok)
Nov 19 2014 11:25:06 orlando.jimenez@ecopetrol.com.co (ok)
Nov 19 2014 11:25:06 achaparro@chevron.com (ok)
Nov 19 2014 11:25:06 administracion@sinaic.net (ok)
Nov 19 2014 11:25:06 adriana_tavera@oxy.com (ok)
Nov 19 2014 11:25:06 aduarte@iycsa.com.co (ok)
Nov 19 2014 11:25:06 afcontrols@gmail.com (ok)
Nov 19 2014 11:25:06 afonseca@fluxcontrol.com.co (ok)
Nov 19 2014 11:25:06 agil@postobon.com.co (ok)
Nov 19 2014 11:25:06 alba.orozco@papelesnacionales.com (ok)
Nov 19 2014 11:25:06 alberto.cardona@grupo-orbis.com (ok)
Nov 19 2014 11:25:06 alberto_gonzalez@praxair.com (ok)
Nov 19 2014 11:25:06 alcastano@epsa.com.co (ok)
Nov 19 2014 11:25:06 alejandra.zea@premac-inc.com (ok)
Nov 19 2014 11:25:06 alejandro.angel@cryogas.com.co (ok)
Nov 19 2014 11:25:06 alejandro.grisales@super.com.co (ok)
Nov 19 2014 11:25:06 alejandro_puentes@mansarovar.com.co (ok)
Nov 19 2014 11:25:06 alexander.granados@ecopetrol.com.co (ok)
Nov 19 2014 11:25:06 alexander.lasso@carvajal.com (ok)
Nov 19 2014 11:25:06 alexander.riscanebo@ecopetrol.com.co (ok)
Nov 19 2014 11:25:06 alexis.rodriguez@ecopetrol.com.co (ok)
Nov 19 2014 11:25:06 alfonso.bernal@ecopetrol.com.co (ok)
Nov 19 2014 11:25:06 alfonso.rojas@ecopetrol.com (ok)
Nov 19 2014 11:25:06 altronic@ftcenergygroup.com.co (ok)
Nov 19 2014 11:25:06 alvaroal.torres@ecopetrol.com.co (ok)
Nov 19 2014 11:25:06 amaury.bornachera@ecopetrol.com.co (ok)
Nov 19 2014 11:25:06 ana_guerrero@praxair.com (ok)
Nov 19 2014 11:25:06 analistacompras@anteksa.com (ok)
Nov 19 2014 11:25:06 anamr@gasesdeoccidente.com (ok)
Nov 19 2014 11:25:06 andrea.cruz@emerald.com.co (ok)
Nov 19 2014 11:25:06 andrea.gomez@mayekawa.com.co (ok)
Nov 19 2014 11:25:06 andres.b.tamayo@bhpbilliton.com (ok)
Nov 19 2014 11:25:06 andres.gonzalez@energeticos.com.co (ok)
Nov 19 2014 11:25:06 andres.mercado@ecopetrol.com.co (ok)
Nov 19 2014 11:25:07 angela.correa@woodgroup.com (ok)
Nov 19 2014 11:25:07 angelica.noguera@postobon.com.co (ok)
Nov 19 2014 11:25:07 aochoa@saufer.com.co (ok)
Nov 19 2014 11:25:07 aramirez@co.imw.ca (ok)
Nov 19 2014 11:25:07 ariel.corredor@soenergy.com.co (ok)
Nov 19 2014 11:25:07 arodriguez@conconcreto.com (ok)
Nov 19 2014 11:25:07 asistente@icsycia.com (ok)
Nov 19 2014 11:25:07 asistente1@ceiincltda.com (ok)
Nov 19 2014 11:25:07 atrejos@gaserco.co (ok)
Nov 19 2014 11:25:07 audi.guarin@ecopetrol.com.co (ok)
Nov 19 2014 11:25:07 auxdocument@termovalle.com (bounce - /home/jaminb/beta/mailing/bad-emails)
Nov 19 2014 11:25:07 bbotero@gmail.com (ok)
Nov 19 2014 11:25:07 blas.campuzano@udea.edu.co (ok)
Nov 19 2014 11:25:07 c.caicedo@puffer.com.co (bounce - /home/jaminb/beta/mailing/bad-emails)
Nov 19 2014 11:25:07 caludia.toro@papelsa.com (ok)
Nov 19 2014 11:25:07 carevalo@fluxcontrol.com.co (ok)
Nov 19 2014 11:25:07 carlos.bedoya@ecopetrol.com.co (ok)
Nov 19 2014 11:25:07 carlos.castro@corelab.com (ok)
Nov 19 2014 11:25:07 carlos.cordoba@ocensa.com.co (ok)
Nov 19 2014 11:25:07 carlos.echeverry@andercol.com.co (ok)
Nov 19 2014 11:25:07 carlos.gonzalez@cryogas.com.co (ok)
Nov 19 2014 11:25:07 carlos.nanez@swcol-ltda.com (ok)
Nov 19 2014 11:25:07 carlos.ordones@promigas.com (ok)
Nov 19 2014 11:25:07 carlos.quintero@ecopetrol.com.co (ok)
Nov 19 2014 11:25:07 carlos.salazar@linde.com (ok)
Nov 19 2014 11:25:07 carlos_pinzon@oxy.com (ok)
Nov 19 2014 11:25:07 carlosa.florez@ecopetrol.com.co (ok)
Nov 19 2014 11:25:07 carlosapb@gasesdeoccidente.com (ok)
Nov 19 2014 11:25:07 carloseduardo.jimenez@woodgroup.com (ok)
Nov 19 2014 11:25:07 carolina.quintero3@carvajal.com (ok)
Nov 19 2014 11:25:07 carolinas@rayco.com.co (ok)
Nov 19 2014 11:25:07 catalina.alarcon@ocensa.com.co (ok)
Nov 19 2014 11:25:07 ccabal@termovalle.com (ok)
Nov 19 2014 11:25:07 cdoria@cdisa.com.co (ok)
Nov 19 2014 11:25:07 cenivam3@tucan.uis.edu.co (ok)
Nov 19 2014 11:25:07 centrodeproductosindustriales@gmail.com (ok)
Nov 19 2014 11:25:07 ekitecol@hotmail.com (ok)
Nov 19 2014 11:25:07 elopez@sioc.co (ok)
Nov 19 2014 11:25:07 emiro.daza@indisa.com (ok)
Nov 19 2014 11:25:07 emontano@monomeros.com (ok)
Nov 19 2014 11:25:07 enrique.ferreira@ecopetrol.com.co (ok)
Nov 19 2014 11:25:07 esteban.cuervo@stork.com (ok)
Nov 19 2014 11:25:07 esteban_perez@praxiar.com (ok)
Nov 19 2014 11:25:07 f.ortiz@puffer.com.co (ok)
Nov 19 2014 11:25:07 fabian.solano@ecopetrol.com.co (ok)
Nov 19 2014 11:25:07 fabian_magin@praxair.com (ok)
Nov 19 2014 11:25:07 fabio.pabon@smurfitkappa.com.co (ok)
Nov 19 2014 11:25:07 fabio.soto@odl.com.co (ok)
Nov 19 2014 11:25:07 farith.salazar@linde.com (ok)
Nov 19 2014 11:25:07 fburbano@co.imw.ca (ok)
Nov 19 2014 11:25:07 felicia.socarras@co.nestle.com (ok)
Nov 19 2014 11:25:07 felipe.marin@linde.com (ok)
Nov 19 2014 11:25:07 fernando.gordillo@o-i.com (ok)
Nov 19 2014 11:25:07 fernando_crus@praxair.com (ok)
Nov 19 2014 11:25:07 fernandompg@hotmail.com (ok)
Nov 19 2014 11:25:07 ferreindustrial53@hotmail.com (ok)
Nov 19 2014 11:25:07 ferreteriacesarltda@telecom.com.co (ok)
Nov 19 2014 11:25:07 ferreteriatodoaceros147@hotmail.com (ok)
Nov 19 2014 11:25:07 ferretericacentralnaive@hotmail.com (bounce - /home/jaminb/beta/mailing/bad-emails)
Nov 19 2014 11:25:07 ferridelca@une.net.co (ok)
Nov 19 2014 11:25:07 fgaviria@isagen.com.co (ok)
Nov 19 2014 11:25:07 fmartinez@proing.com.co (ok)
Nov 19 2014 11:25:07 fmontoya@efigas.com.co (ok)
Nov 19 2014 11:25:07 francisco.gomez.bedoya@epm.com.co (ok)
Nov 19 2014 11:25:07 francisco.gonzalez@hcl.com.co (ok)
Nov 19 2014 11:25:07 francisco.mesa@praxair.com (bounce - /home/jaminb/beta/mailing/bad-emails)
Nov 19 2014 11:25:07 francisco.vidal@carvajal.com (ok)
Nov 19 2014 11:25:07 frivera@sarenergy.com (bounce - /home/jaminb/beta/mailing/bad-emails)
Nov 19 2014 11:25:07 fsarmiento@canacolenergy.com (ok)
Nov 19 2014 11:25:07 fvilla@efigas.com.co (ok)
Nov 19 2014 11:25:07 gabriel_suarez@praxair.com (ok)
Nov 19 2014 11:25:07 gasmovil@gasmovil.com.co (ok)
Nov 19 2014 11:25:07 geasierraga@unal.edu.com (ok)
Nov 19 2014 11:25:07 gerencia@dkptrading.com (ok)
Nov 19 2014 11:25:07 gerencia@ingegasdeoccidente.com (ok)
Nov 19 2014 11:25:07 gerencia@insoltec.com.co (ok)
Nov 19 2014 11:25:07 gerenciabarranquilla@pcl.com.co (ok)
Nov 19 2014 11:25:07 gerenciaibague@pd.com.co (ok)
Nov 19 2014 11:25:07 german.sanchez@energeticos.com.co (ok)
Nov 19 2014 11:25:07 germanald@hotmail.com (ok)
Nov 19 2014 11:25:07 ggarcia@efigas.com.co (ok)
Nov 19 2014 11:25:07 gladysjerez2604@yahoo.com (ok)
Nov 19 2014 11:25:07 glennys.frias1@kentz.com (ok)
Nov 19 2014 11:25:07 globalmeching@gmail.com (ok)
Nov 19 2014 11:25:07 gloria.a.martinez@bhpbilliton.com (ok)
Nov 19 2014 11:25:07 gloria.orozco@proin.com.co (ok)
Nov 19 2014 11:25:07 gmaloof@postobon.com.co (ok)
Nov 19 2014 11:25:07 gmeltda2004@hotmail.com (ok)
Nov 19 2014 11:25:07 gustavo.bolanos@correounivalle.edu.co (ok)
Nov 19 2014 11:25:07 gustavo.calderon@ecopetrol.com.co (ok)
Nov 19 2014 11:25:07 jose.cardona@papelesnacionales.com (ok)
Nov 19 2014 11:25:07 jose.diaz@importecnical.com (ok)
Nov 19 2014 11:25:07 jose.jerez@cryogas.com.co (ok)
Nov 19 2014 11:25:07 jose.quintero@soenergy.com.co (ok)
Nov 19 2014 11:25:07 joseed.castano@ecopetrol.com.co (ok)
Nov 19 2014 11:25:07 jpataquiva@pacificrubiales.com.co (ok)
Nov 19 2014 11:25:07 jrcproveer@hotmail.com (bounce - /home/jaminb/beta/mailing/bad-emails)
Nov 19 2014 11:25:07 jrodriguez@canacolenergy.com (ok)
Nov 19 2014 11:25:07 jrodriguez@gascol.com.co (ok)
Nov 19 2014 11:25:07 jtecnisa@yahoo.com (ok)
Nov 19 2014 11:25:07 juan.fuentes@ecopetrol.com.co (ok)
Nov 19 2014 11:25:07 juan.huertas@ecopetrol.com.co (ok)
Nov 19 2014 11:25:07 juan.marulanda@odl.com.co (ok)
Nov 19 2014 11:25:07 juan.orjuela@cryogas.com.co (ok)
Nov 19 2014 11:25:07 juan_camargo@siemens.com (ok)
Nov 19 2014 11:25:07 juancm@gasesdeoccidente.com (ok)
Nov 19 2014 11:25:07 julianamadrid@suministrosneumaticos.com.co (ok)
Nov 19 2014 11:25:07 julieta.muvdi@abocol.com (ok)
Nov 19 2014 11:25:07 jvillalba@mexichem.com (ok)
Nov 19 2014 11:25:07 karen.prieto@ecopetrol.com.co (ok)
Nov 19 2014 11:25:07 karol.ordo'f1ez@epctoscano.com (ok)
Nov 19 2014 11:25:07 kdelgado@grantierra.com (ok)
Nov 19 2014 11:25:07 l.ariza@petrosantander.com.co (ok)
Nov 19 2014 11:25:07 larc1681@hotmail.com (ok)
Nov 19 2014 11:25:07 larregoces@co.imw.ca (ok)
Nov 19 2014 11:25:07 larry.lopez@colfaxfluidhandling.com (ok)
Nov 19 2014 11:25:07 laura.laverde@ecopetrol.com.co (ok)
Nov 19 2014 11:25:07 laura.mesa@cafedecolombia.com (ok)
Nov 19 2014 11:25:07 laura.peralta@manuelita.com (ok)
Nov 19 2014 11:25:07 lbueno@gasnatural.com (ok)
Nov 19 2014 11:25:07 leidy.uribe@o-i.com (bounce - /home/jaminb/beta/mailing/bad-emails)
Nov 19 2014 11:25:07 leonardo.cardenas@woodgroup.com (ok)
Nov 19 2014 11:25:07 leonardo.gutierrez@centelsa.com.co (ok)
Nov 19 2014 11:25:07 leonel.abreu@ecopetrol.com.co (ok)
Nov 19 2014 11:25:07 lesguerra@celsia.com (ok)
Nov 19 2014 11:25:07 leydy.carreno@ecopetrol.com.co (ok)
Nov 19 2014 11:25:07 lfuentes5@slb.com (ok)
Nov 19 2014 11:25:07 lgaleano@surpetroil.com.co (ok)
Nov 19 2014 11:25:07 lgiraldo@isagen.com.co (ok)
Nov 19 2014 11:25:07 libardo.velasco@ecopetrol.com.co (ok)
Nov 19 2014 11:25:07 lilian.guerra@ecopetrol.com.co (ok)
Nov 19 2014 11:25:07 lina_carvajal@tdo.com.co (ok)
Nov 19 2014 11:25:07 lino.rojas@ecopetrol.com.co (ok)
Nov 19 2014 11:25:07 ljaramillo@schradercamargo.com.co (ok)
Nov 19 2014 11:25:07 lmolina@planen.com.co (ok)
Nov 19 2014 11:25:07 lmontero@postobon.com.co (bounce - /home/jaminb/beta/mailing/bad-emails)
Nov 19 2014 11:25:07 lorena.ramos@massygroup.com (ok)
Nov 19 2014 11:25:07 lorena.yara@corelab.com (ok)
Nov 19 2014 11:25:07 lramos@acesco.com (ok)
Nov 19 2014 11:25:07 lreyes@cdtdegas.com (ok)
Nov 19 2014 11:25:07 lromero@tiger-cos.com (ok)
Nov 19 2014 11:25:07 lroyero@celsia.com (ok)
Nov 19 2014 11:25:07 luin.carmona@cryogas.com.co (ok)
Nov 19 2014 11:25:07 luis.candela@manuelita.com (ok)
Nov 19 2014 11:25:07 luis.castro@hocol.com.co (ok)
Nov 19 2014 11:25:07 luis.gutierrez@centelsa.com.co (ok)
Nov 19 2014 11:25:07 luis.herrera@ocensa.com.co (ok)
Nov 19 2014 11:25:07 luis.luna@smurfitkappa.com.co (ok)
Nov 19 2014 11:25:07 luis.ospitia@ingredion.com (ok)
Nov 19 2014 11:25:07 luis.vargas@ecopetrol.com.co (ok)
Nov 19 2014 11:25:07 luis.varon@termoemcali.com (ok)
Nov 19 2014 11:25:07 luis_roldan@baxter.com (ok)
Nov 19 2014 11:25:07 luisa.carvajal@super.com.co (ok)
Nov 19 2014 11:25:07 ceo@quicksuppliers-sas.com (ok)
Nov 19 2014 11:25:07 chernandez@kaelingenieros.com (bounce - /home/jaminb/beta/mailing/bad-emails)
Nov 19 2014 11:25:07 clara.cardenas@la.weatherford.com (ok)
Nov 19 2014 11:25:07 claudia.camargo@co.atlascopco.com (ok)
Nov 19 2014 11:25:07 claudia.navarro@contourglobal.com (ok)
Nov 19 2014 11:25:07 claudia.quintero@epctoscano.com (bounce - /home/jaminb/beta/mailing/bad-emails)
Nov 19 2014 11:25:07 claudia.segura@woodgroup.com (ok)
Nov 19 2014 11:25:07 cmendoza@deltagas.com.co (ok)
Nov 19 2014 11:25:07 cnavia@colombina.com (ok)
Nov 19 2014 11:25:07 coimetsas@gmail.com (ok)
Nov 19 2014 11:25:07 comercial@ferropetrol.com (ok)
Nov 19 2014 11:25:07 comercial@fluidosyservicios.com (ok)
Nov 19 2014 11:25:07 comercial@ifcontrolcolombia.com (ok)
Nov 19 2014 11:25:07 comercial@iteco.com.co (ok)
Nov 19 2014 11:25:07 oropara@hotmail.com (ok)
Nov 19 2014 11:25:07 oscar.corredor@ecopetrol.com.co (ok)
Nov 19 2014 11:25:07 oscar.olaya@insurcol.com (ok)
Nov 19 2014 11:25:07 oscar.valero@ecopetrol.com.co (ok)
Nov 19 2014 11:25:07 oswaldo.perez@ude.edu.co (ok)
Nov 19 2014 11:25:07 oximedicinales.armenia@gmail.com (ok)
Nov 19 2014 11:25:07 oxiredesltda@yahoo.com (ok)
Nov 19 2014 11:25:07 oxisur52@hotmail.com (ok)
Nov 19 2014 11:25:07 pablo.saravia@carvajal.com (ok)
Nov 19 2014 11:25:07 pacespedes@chocolates.com.co (ok)
Nov 19 2014 11:25:07 paola_leguizamo@baxter.com (ok)
Nov 19 2014 11:25:07 paula.rojas@hcl.com.co (ok)
Nov 19 2014 11:25:07 paulo.victoria@ecopetrol.com.co (ok)
Nov 19 2014 11:25:07 pedro.lopez@isi-ingenieros.com (ok)
Nov 19 2014 11:25:07 pedronelsal1@hotmail.com (ok)
Nov 19 2014 11:25:07 pquintero@ecodieselcolombiasa.com (ok)
Nov 19 2014 11:25:07 proingsa@proing.com.co (ok)
Nov 19 2014 11:25:07 proyecto7@flowcontrolh.com (bounce - /home/jaminb/beta/mailing/bad-emails)
Nov 19 2014 11:25:07 proyectos@orgambiental.com (ok)
Nov 19 2014 11:25:07 proyectos8@orgambiental.com (bounce - /home/jaminb/beta/mailing/bad-emails)
Nov 19 2014 11:25:07 psi.wbc@hotmail.com (ok)
Nov 19 2014 11:25:07 r.fernandez@laverlam.com (bounce - /home/jaminb/beta/mailing/bad-emails)
Nov 19 2014 11:25:07 r.londono@puffer.com.co (ok)
Nov 19 2014 11:25:07 rafael.garcia.rincon@linde.com (ok)
Nov 19 2014 11:25:07 rafael.tamayo@ecopetrol.com.co (ok)
Nov 19 2014 11:25:07 ramiro.arenas@reficar.com.co (ok)
Nov 19 2014 11:25:07 rcorrea@cycoservices.com (ok)
Nov 19 2014 11:25:07 recepcion@hidroprob.com (ok)
Nov 19 2014 11:25:07 repuestos@teknik.com.co (bounce - /home/jaminb/beta/mailing/bad-emails)
Nov 19 2014 11:25:07 rgamboa@cdtdegas.com (ok)
Nov 19 2014 11:25:07 rioruiz.pez@gmail.com (ok)
Nov 19 2014 11:25:07 rober.henao@cryogas.com.co (ok)
Nov 19 2014 11:25:07 roberto.osorio@propilco.com (ok)
Nov 19 2014 11:25:07 roberto_sanchez@insoltec.com.co (ok)
Nov 19 2014 11:25:07 rolandom@gasesdeoccidente.com (ok)
Nov 19 2014 11:25:07 sa.gomez@petrosantander.com.co (ok)
Nov 19 2014 11:25:07 sacavi63@gmail.com (ok)
Nov 19 2014 11:25:07 samaldonado@pacificrubiales.com.co (ok)
Nov 19 2014 11:25:07 sandra07@utadeo.edu.co (ok)
Nov 19 2014 11:25:07 sara_leon@praxair.com (ok)
Nov 19 2014 11:25:07 scastro@efigas.com.co (ok)
Nov 19 2014 11:25:07 sdiaz@uniandes.edu.co (ok)
Nov 19 2014 11:25:07 sebastian.garcia@linde.com (ok)
Nov 19 2014 11:25:07 seguridad_procesos_planta_piloto@ecopetrol.com.co (ok)
Nov 19 2014 11:25:07 seiltda@telecom.com.co (ok)
Nov 19 2014 11:25:07 sergio.bernal@ecopetrol.com (ok)
Nov 19 2014 11:25:07 servelindeoccidente@yahoo.com (ok)
Nov 19 2014 11:25:07 servimecas@hotmail.com (ok)
Nov 19 2014 11:25:07 servinja@yahoo.com (bounce - /home/jaminb/beta/mailing/bad-emails)
Nov 19 2014 11:25:08 servitechomma@gmail.com (ok)
Nov 19 2014 11:25:08 sihmltda@gmail.com (ok)
Nov 19 2014 11:25:08 sincron.compras@gmail.com (ok)
Nov 19 2014 11:25:08 smalarcon@iteco.com.co (bounce - /home/jaminb/beta/mailing/bad-emails)
Nov 19 2014 11:25:08 sonia.hernandez@isi-ingenieros.com (ok)
Nov 19 2014 11:25:08 srojas@slb.com (ok)
Nov 19 2014 11:25:08 sumicali@sumicali.com (ok)
Nov 19 2014 11:25:08 sumipet.sas@hotmail.com (ok)
Nov 19 2014 11:25:08 taandrade@co.perenco.com (ok)
Nov 19 2014 11:25:08 tabatta26@gmail.com (ok)
Nov 19 2014 11:25:08 tatiana.garcia@eliteing.com (ok)
Nov 19 2014 11:25:08 tecnicryoltda_9@hotmail.com (ok)
Nov 19 2014 11:25:08 thiltda@gmail.com (ok)
Nov 19 2014 11:25:08 trico@eci.com.co (ok)
Nov 19 2014 11:25:08 tuvacolcal@tuvacol.com (ok)
Nov 19 2014 11:25:08 urodriguez@technocontrol.com (bounce - /home/jaminb/beta/mailing/bad-emails)
Nov 19 2014 11:25:08 ventas@gonzaleztascon.com (ok)
Nov 19 2014 11:25:08 ventas@hnsa.com.co (ok)
Nov 19 2014 11:25:08 ventas@suministrosneumaticos.com (bounce - /home/jaminb/beta/mailing/bad-emails)
Nov 19 2014 11:25:08 ventas01@ifcontrolcolombia.com (ok)
Nov 19 2014 11:25:08 ventas7cali@tuvacol.com (ok)
Nov 19 2014 11:25:08 ventasindustriacali6@sumatec.com.co (ok)
Nov 19 2014 11:25:08 ventastrasuiza@gmail.com (ok)
Nov 19 2014 11:25:08 villarrealsas@gmail.com (ok)
Nov 19 2014 11:25:08 viverotecnologicodeoccidente@gmail.com (ok)
Nov 19 2014 11:25:08 vladimir.fajardo@linde.com (ok)
Nov 19 2014 11:25:08 william.giraldo@enka.com.co (ok)
Nov 19 2014 11:25:08 william.rojas@ocensa.com.co (ok)
Nov 19 2014 11:25:08 wmarin@cdisa.com.co (ok)
Nov 19 2014 11:25:08 wmeza@colombina.com (ok)
Nov 19 2014 11:25:08 wmurillo@styrenics.com (ok)
Nov 19 2014 11:25:08 wreales@cdisa.com.co (ok)
Nov 19 2014 11:25:08 yaimi.camelo@genserpower.com (bounce - /home/jaminb/beta/mailing/bad-emails)
Nov 19 2014 11:25:08 yazmin.ramirez@super.com.co (ok)
Nov 19 2014 11:25:08 yeimi.reyes@pilautomation.com (ok)
Nov 19 2014 11:25:08 yolanda.chaparro@carvajal.com (ok)
Nov 19 2014 11:25:08 yolanda.gomez@woodgroup.com (ok)
Nov 19 2014 11:25:08 yolin.valencia@sye.com.co (ok)
Nov 19 2014 11:25:08 ypuchana@dresser-rand.com (ok)
Nov 19 2014 11:25:08 zcarvajal@fonosgases.com (ok)
Nov 19 2014 11:25:08 zsanchez@termovalle.com (ok)
# send: 2 by: vhernandez; lists: gAJdcQFVB3NoZWV0OjJxAmFLAIZxAy4=_; cmdline: --sendid=561608 --fromatq --throttle-client=no --at 8:16AM today -lsheet:2 send email-spanish.txt list-incli-spanish.txt
Nov 20 2014 08:16:05 surescoltda@hotmail.com (ok)
Nov 20 2014 08:16:05 tbaquero@tipiel.com.co (bounce - /home/jaminb/beta/mailing/bad-emails)
Nov 20 2014 08:16:05 teddy.meza@ecopetrol.com.co (ok)
Nov 20 2014 08:16:05 v.alvarez@jejaimesingenieros.com.co (ok)
Nov 20 2014 08:16:05 ventas@admitecltda.com (ok)
Nov 20 2014 08:16:05 wjacome@cbi.com (ok)
Nov 20 2014 08:16:05 worduzperez@yahoo.com (ok)
Nov 20 2014 08:16:05 xiomara.cardenas@papelesnacionales.com (ok)
Nov 20 2014 08:16:05 zulma_lopez@megaingenieria.com (bounce - /home/jaminb/beta/mailing/bad-emails)
Nov 20 2014 08:16:05 insermecdelacosta@hotmail.com (ok)
Nov 20 2014 08:16:05 instrutec@hotmail.com (ok)
Nov 20 2014 08:16:05 jaime.gonzalez@cryogas.com.co (ok)
Nov 20 2014 08:16:05 javier.garcia@cryogas.com.co (ok)
Nov 20 2014 08:16:05 javier.triana@ecopetrol.com.co (ok)
Nov 20 2014 08:16:05 javier_cobo@praxair.com (ok)
Nov 20 2014 08:16:05 jesus.castillo@ecopetrol.com.co (ok)
Nov 20 2014 08:16:05 john.correa@ocensa.com (ok)
Nov 20 2014 08:16:05 joperativo@gasmovil.com.co (ok)
Nov 20 2014 08:16:05 jorge.le'f3n@ecopetrol.com.co (ok)
Nov 20 2014 08:16:05 jose.fagua@emerald.com.co (ok)
Nov 20 2014 08:16:05 juan.jaimes@ecopetrol.com.co (ok)
Nov 20 2014 08:16:05 juan.neuenschwander@ecopetrol.com.co (ok)
Nov 20 2014 08:16:05 katty.tangarife@azul-ingenieria.com (ok)
Nov 20 2014 08:16:05 kwilches@gascaribe.com (ok)
Nov 20 2014 08:16:05 lariza@canacolenergy.com (ok)
Nov 20 2014 08:16:05 leonardo.ticora@gmail.com (ok)
Nov 20 2014 08:16:05 lilliana.madrigal@epm.com.co (ok)
Nov 20 2014 08:16:05 ljaramillo@alico-sa.com (ok)
Nov 20 2014 08:16:05 administrativo@automatizacion.com.co (ok)
Nov 20 2014 08:16:06 aespinosa@sicelub.com (ok)
Nov 20 2014 08:16:06 afsanchez@quimpac.com.co (ok)
Nov 20 2014 08:16:06 agarcia@isagen.com.co (ok)
Nov 20 2014 08:16:06 almacen.sibate@cryogas.com.co (ok)
Nov 20 2014 08:16:06 amoreno.udea@gmail.com (ok)
Nov 20 2014 08:16:06 angela.rueda@ecopetrol.com.co (ok)
Nov 20 2014 08:16:06 angelaguayacan.mg@gmail.com (ok)
Nov 20 2014 08:16:06 aosoriog@qbasica.com (bounce - /home/jaminb/beta/mailing/bad-emails)
Nov 20 2014 08:16:06 asistentecompras@surpetroil.com.co (ok)
Nov 20 2014 08:16:06 azuluaga@sucroal.com.co (ok)
Nov 20 2014 08:16:06 beatriz.barboza@ecopetrol.com.co (ok)
Nov 20 2014 08:16:06 bertha.espitia@ces.com.co (ok)
Nov 20 2014 08:16:06 cafarango@epsa.com.co (ok)
Nov 20 2014 08:16:06 cimeza@quimpac.com.co (ok)
Nov 20 2014 08:16:06 compras@industriastanuzi.com (ok)
Nov 20 2014 08:16:06 compras@insurcol.com (ok)
Nov 20 2014 08:16:06 compras@mysi-ltda.com (ok)
Nov 20 2014 08:16:06 compras@tametco.com (ok)
Nov 20 2014 08:16:06 conriocas@riopaila-castilla.com (bounce - /home/jaminb/beta/mailing/bad-emails)
Nov 20 2014 08:16:06 contabilidad@bapingenieria.com.co (ok)
Nov 20 2014 08:16:06 cotizaciones02@automatizacion.com.co (ok)
Nov 20 2014 08:16:06 cristhian_mosquera@praxair.com (ok)
Nov 20 2014 08:16:06 cristina.carvajal@upb.edu.co (ok)
Nov 20 2014 08:16:06 danny.charris@cryogas.com.co (ok)
Nov 20 2014 08:16:06 deibyg@gasesdeoccidente.com (ok)
Nov 20 2014 08:16:06 dfranco@exiros.com (ok)
Nov 20 2014 08:16:06 doris.pi'f1eros@praxair.com.co (ok)
Nov 20 2014 08:16:06 dtecnico@macrogaspruebas.com (ok)
Nov 20 2014 08:16:06 edinson.becerra@iati.com.co (ok)
Nov 20 2014 08:16:06 egomez@tablemac.com (ok)
Nov 20 2014 08:16:06 elopez@co.perenco.com (ok)
Nov 20 2014 08:16:06 felix.alvarado@ecopetrol.com (ok)
Nov 20 2014 08:16:06 ferreteriacentralneiva@hotmail.com (ok)
Nov 20 2014 08:16:06 francisco.meza@praxair.com (bounce - /home/jaminb/beta/mailing/bad-emails)
Nov 20 2014 08:16:06 francisco.toro@cryogas.com.co (ok)
Nov 20 2014 08:16:06 fredy_lopez@praxair.com (ok)
Nov 20 2014 08:16:07 frivera@pps-equipment.com (ok)
Nov 20 2014 08:16:07 gerencia@mediciones-ambientales.com (ok)
Nov 20 2014 08:16:07 gerente.eyc@gmail.com (ok)
Nov 20 2014 08:16:07 giovanny_lozano@mansarovar.com.co (ok)
Nov 20 2014 08:16:07 luzduran@gascaribe.com (ok)
Nov 20 2014 08:16:07 manuel.tarazona@ecopetrol.com.co (ok)
Nov 20 2014 08:16:07 margarita.quintero@consorciomarcolombia.com (ok)
Nov 20 2014 08:16:07 marjoire.tafur@ecopetrol.com.co (ok)
Nov 20 2014 08:16:07 marlon.rojas@ecopetrol.com.co (ok)
Nov 20 2014 08:16:07 marvel.jimeno@promigas.com (ok)
Nov 20 2014 08:16:07 materiales@rimax.com.co (ok)
Nov 20 2014 08:16:07 mauricio.mejia@cryogas.com.co (ok)
Nov 20 2014 08:16:07 mauricio.viveros@carvajal.com (ok)
Nov 20 2014 08:16:07 metalredes@hotmail.com (ok)
Nov 20 2014 08:16:07 milton.durango@bav.sabmiller.com (ok)
Nov 20 2014 08:16:07 monica.alvarez.guzman@epm.com.co (ok)
Nov 20 2014 08:16:07 monik.arcos@hotmail.com (ok)
Nov 20 2014 08:16:07 ncerpa@celsia.com (ok)
Nov 20 2014 08:16:07 nelson.zambrano@ecopetrol.com.co (ok)
Nov 20 2014 08:16:07 nerazo@tiger-cos.com (ok)
Nov 20 2014 08:16:07 nyucuma@epsa.com.co (ok)
Nov 20 2014 08:16:07 o.sandoval@petrosatander.com.co (ok)
Nov 20 2014 08:16:07 oscar.gordillo@ocensa.com.co (ok)
Nov 20 2014 08:16:07 outsourcing19@pacificrubiales.com.co (ok)
Nov 20 2014 08:16:07 plinio.uribarren@ecopetrol.com.co (ok)
Nov 20 2014 08:16:07 ppalma@termovalle.com (ok)
Nov 20 2014 08:16:07 primatizar@hotmail.com (ok)
Nov 20 2014 08:16:07 ricardo.b.mejia@bhpbilliton.com (ok)
Nov 20 2014 08:16:07 rodolfo.ortiz@ecopetrol.com.co (ok)
Nov 20 2014 08:16:07 rogerio.palomino@cerrejoncoal.com (ok)
Nov 20 2014 08:16:07 rvillalba@lamitech.com.co (ok)
Nov 20 2014 08:16:07 sagudelo@ingeniolacabana.com (ok)
Nov 20 2014 08:16:07 sebastian.isaza@woodgroup.com (ok)
Nov 20 2014 08:16:07 servinavltda@gmail.com (ok)
Nov 20 2014 08:16:07 suministros.asistente2@rimax.com.co (ok)
